# Created by Octave 7.3.0, Fri Nov 18 18:36:54 2022 CET <alatina@macbe16641.dyndns.cern.ch>
# name: Emitt_hist
# type: matrix
# rows: 100
# columns: 2
 433.94600930319763 324.60152901547025
 314.5859663389835 163.53931720394689
 943.41524629893593 983.32825392542418
 166.2578295370395 127.34380773500776
 103.78872599030083 311.26748257211193
 315.90911793138565 180.85838329847212
 275.83969450850987 836.20256045466488
 143.03024208707765 813.7031877112031
 150.08017304393911 853.56220794317505
 84.02936557048757 209.32201326071632
 568.1108808351878 352.32700863617566
 270.3305017133722 55.542220214357101
 98.963112329315464 543.33867752705646
 737.64938993237581 199.43204039761216
 494.5056792217573 520.84028363815435
 250.90372928609514 311.84049111773601
 745.92790684415115 120.6235688683165
 1624.5168599478711 162.856915313977
 128.27509397456376 707.51935661567165
 277.92039803417578 1145.2751447051955
 472.04760068847906 258.29040909054424
 529.83178624214827 243.08814721971535
 64.255794376879976 183.08576291014091
 142.0122172365258 225.81958993194388
 115.500750609962 287.66500185800464
 773.72387919651567 158.7117205774845
 166.19718865441533 292.66886344718603
 208.88927818689172 187.8866092458652
 290.37559003273196 241.4827264800023
 201.4230556483341 145.4840853153224
 376.57754099741356 237.00623628562383
 225.24338492711084 91.817103245372394
 183.52503232218618 275.22126505091865
 267.35976194260991 205.10480971092483
 75.182411961374768 291.46589655113331
 119.26667577469658 1031.285513948209
 660.13994468132648 223.16145023367494
 311.4389575183767 176.9856838951975
 615.01825624645926 161.46400218215308
 533.15196202856782 255.11325556985338
 168.55316217030816 91.599820501461224
 226.48299073458327 281.92535463195566
 862.91924972802678 858.54597156767238
 129.18304802259649 880.78282763610184
 187.58214075363466 74.744992755629582
 100.15635071645271 163.61208532878655
 101.93129403249621 181.70098230753734
 555.43443484312172 166.82862082121309
 405.56154784169439 72.49848174359353
 139.99350887289009 199.2457610207687
 350.94652362005047 135.26974736902991
 233.63263136877291 261.38281959464348
 499.02382264891747 219.53258097226822
 342.06572354330052 409.24762770695656
 462.71833038819142 201.59356287145687
 303.27852944674549 521.20214441574933
 194.50939989134963 308.43933401900404
 205.82780858722424 141.36056262199571
 803.12542138596564 163.84754131124973
 84.52593554795564 283.67651760215762
 164.89047171055012 266.72240253933711
 368.564373797602 168.88814656748215
 288.63350611941524 245.43868999227971
 352.74675583802997 261.46808121913864
 1509.1360745790284 61.31596909261399
 74.8317207193912 242.43123008278948
 485.91305429534975 195.0390538575098
 484.62936697400761 1124.0724692422393
 347.74255343857072 292.64992408398928
 125.42701607512342 81.114924768856611
 575.95758448456525 98.701406740565716
 140.47374407959038 181.78463424188257
 869.75068025227904 162.22936034899908
 426.44164759497312 400.12048966565447
 66.682235451380492 239.29035574377454
 478.69093520613808 431.56406129522429
 99.505061453053486 243.59280965505667
 105.96219412737598 185.57627569134172
 204.87294616962475 337.4262738780667
 338.58226226973625 134.98485989642199
 381.6949983418034 160.08257141392178
 177.27135145829925 301.51049217684664
 262.51784462045441 103.26751481218146
 277.82843788145595 785.62238804271578
 339.49026881502982 460.43884824072143
 314.87083199183746 1011.1521500454727
 296.88019775838779 1041.1214397165068
 107.04126736992644 82.117250779865756
 181.95240026694015 626.8589330414801
 479.19949455057821 323.70063373350422
 417.56935711455679 113.23956887138569
 265.68496332326271 171.15013573329375
 113.71680867441219 158.1748359970579
 246.16999048690056 102.89769469606357
 442.48290310838144 101.38718814803693
 800.94506756052272 1057.3750901933172
 256.17636401410635 85.915321421658547
 231.79569768859506 228.31605089376703
 152.45444326692834 1053.8259345172851
 1126.3942145146848 155.52643447609023


